Analyzing the Effect of External Factors on Crimes Reported in Boston
…
2.2. Loading the Data

We are using open data hubs to access all the data sets we need. Since all of the data we need for the final project is available as CSV files, we will be using read_csv() to load all our data sets.

Crimes Reported in Boston

The Crimes Reported in Boston data set is an extensive and well-documented data set containing all the crimes reported in the Great Boston area from August 2015 to date i.e May 18th 2020. The data set can be found on: https://data.boston.gov/dataset/crime-incident-reports-august-2015-to-date-source-new-system

The data set contains all the necessary information about crimes reported from Boston Police offense codes, date/time of the crime, address, and coordinates of the location where a crime was reported.

crimes <- read_csv('Crimes_Reported.csv') %>%
  drop_na(Lat, Long)
crimes

## # A tibble: 416,071 x 17
##    INCIDENT_NUMBER OFFENSE_CODE OFFENSE_CODE_GR~ OFFENSE_DESCRIP~ DISTRICT
##    <chr>           <chr>        <chr>            <chr>            <chr>   
##  1 I192082859      00724        Auto Theft       AUTO THEFT       E18     
##  2 I192082751      00724        Auto Theft       AUTO THEFT       E18     
##  3 I192082680      00727        Auto Theft       AUTO THEFT - LE~ D14     
##  4 I192082577      00724        Auto Theft       AUTO THEFT       D4      
##  5 I192079582      00727        Auto Theft       AUTO THEFT - LE~ A15     
##  6 I192078648      03114        Investigate Pro~ INVESTIGATE PRO~ B3      
##  7 I192078647      03115        Investigate Per~ INVESTIGATE PER~ A1      
##  8 I192078645      01402        Vandalism        VANDALISM        B3      
##  9 I192078645      03301        Verbal Disputes  VERBAL DISPUTE   B3      
## 10 I192078642      03820        Motor Vehicle A~ M/V ACCIDENT IN~ D4      
## # ... with 416,061 more rows, and 12 more variables: REPORTING_AREA <dbl>,
## #   SHOOTING <chr>, OCCURRED_ON_DATE <dttm>, YEAR <dbl>, MONTH <dbl>,
## #   DAY_OF_WEEK <chr>, HOUR <dbl>, UCR_PART <chr>, STREET <chr>, Lat <dbl>,
## #   Long <dbl>, Location <chr>

Public Schools in Boston

The Public Schools in Boston data set contains all the public schools in the Greater Boston area. Since there are no coordinates specificed, we will have to conduct analysis for this data for an entire neighborhood in general, instead of specific areas. The data set can be found on: https://data.boston.gov/dataset/public-schools

schools <- read_csv('Public_Schools.csv')
schools

## # A tibble: 131 x 18
##         X      Y OBJECTID_1 OBJECTID BLDG_ID BLDG_NAME ADDRESS CITY  ZIPCODE
##     <dbl>  <dbl>      <dbl>    <dbl>   <dbl> <chr>     <chr>   <chr> <chr>  
##  1 7.90e5 2.97e6          1        1       1 Guild Bl~ 195 Le~ East~ 02128  
##  2 7.83e5 2.96e6          2        2       3 Kennedy,~ 343 Sa~ East~ 02128  
##  3 7.82e5 2.96e6          3        3       4 Otis Bldg 218 Ma~ East~ 02128  
##  4 7.81e5 2.96e6          4        4       6 Odonnell~ 33 Tre~ East~ 02128  
##  5 7.82e5 2.96e6          5        5       7 East Bos~ 86 Whi~ East~ 02128  
##  6 7.80e5 2.96e6          6        6       8 Umana / ~ 312 Bo~ East~ 02128  
##  7 7.82e5 2.96e6          7        7      10 East Bos~ 135 Go~ East~ 02128  
##  8 7.82e5 2.96e6          8        8      11 Mckay Bl~ 122 Co~ East~ 02128  
##  9 7.82e5 2.96e6          9        9      12 Adams Bl~ 165 We~ East~ 02128  
## 10 7.76e5 2.96e6         10       10      13 Harvard-~ 50 Bun~ Char~ 02129  
## # ... with 121 more rows, and 9 more variables: CSP_SCH_ID <dbl>, SCH_ID <dbl>,
## #   SCH_NAME <chr>, SCH_LABEL <chr>, SCH_TYPE <chr>, SHARED <chr>,
## #   COMPLEX <chr>, POINT_X <dbl>, POINT_Y <dbl>
…
Weather Data for Boston

The Weather Data for Boston data set from NOAA contains weather data from the beginning of 2015 to date i.e 18th May 2020. It includes information about precipitation, snow, and the daily high and low temperature. The goal is to use this data set to find a correlation between severe weather conditions and crimes reported. The data set can be found on: https://www.ncdc.noaa.gov/cdo-web/datasets/GHCND/stations/GHCND:USW00014739/detail

weather <- read_csv('Weather.csv')
weather

## # A tibble: 1,960 x 7
##    STATION     DATE       PRCP  SNOW  TAVG  TMAX  TMIN
##    <chr>       <chr>     <dbl> <dbl> <dbl> <dbl> <dbl>
##  1 USW00014739 1/1/2015  0       0      26    33    22
##  2 USW00014739 1/2/2015  0       0      34    41    31
##  3 USW00014739 1/3/2015  0.62    1.4    28    37    22
##  4 USW00014739 1/4/2015  0.570   0      38    52    35
##  5 USW00014739 1/5/2015  0       0      40    50    17
##  6 USW00014739 1/6/2015  0.02    0.2    17    18    15
##  7 USW00014739 1/7/2015  0       0      19    26     4
##  8 USW00014739 1/8/2015  0       0       8    19    -1
##  9 USW00014739 1/9/2015  0.01    0.2    23    30    19
## 10 USW00014739 1/10/2015 0       0      22    24    17
## # ... with 1,950 more rows
…
crimes_tidy

## # A tibble: 416,071 x 10
##    OFFENSE_CODE OFFENSE_CODE_GR~ DISTRICT SHOOTING OCCURRED_ON_DATE   
##           <dbl> <chr>            <chr>       <dbl> <dttm>             
##  1          724 Auto Theft       E18             0 2019-10-13 09:28:24
##  2          724 Auto Theft       E18             0 2019-10-12 20:11:26
##  3          727 Auto Theft       D14             0 2019-10-12 15:12:43
##  4          724 Auto Theft       D4              0 2019-10-12 04:41:52
##  5          727 Auto Theft       A15             0 2019-10-02 08:08:49
##  6         3114 Investigate Pro~ B3              0 2019-09-29 06:39:00
##  7         3115 Investigate Per~ A1              0 2019-09-29 03:45:00
##  8         1402 Vandalism        B3              0 2019-09-29 06:00:00
##  9         3301 Verbal Disputes  B3              0 2019-09-29 06:00:00
## 10         3820 Motor Vehicle A~ D4              0 2019-09-29 05:50:00
## # ... with 416,061 more rows, and 5 more variables: DAY_OF_WEEK <chr>,
## #   STREET <chr>, Lat <dbl>, Long <dbl>, DATE <date>

Weather in Boston

To tidy the Weather in Boston data set, we convert the DATE attribute to datetime for ease of use later. We will also prepare this data set for analysis by determining what constitutes as severe weather. Let us define that any amount of rain (precipitation) above 1 inches and snowfall above 3 inches.

weather_tidy <- weather %>%
  mutate(DATE = mdy(DATE)) %>%
  mutate(SEVERE = ifelse(PRCP > 1 | SNOW > 2, "Yes", "No"))

weather_tidy

## # A tibble: 1,960 x 8
##    STATION     DATE        PRCP  SNOW  TAVG  TMAX  TMIN SEVERE
##    <chr>       <date>     <dbl> <dbl> <dbl> <dbl> <dbl> <chr> 
##  1 USW00014739 2015-01-01 0       0      26    33    22 No    
##  2 USW00014739 2015-01-02 0       0      34    41    31 No    
##  3 USW00014739 2015-01-03 0.62    1.4    28    37    22 No    
##  4 USW00014739 2015-01-04 0.570   0      38    52    35 No    
##  5 USW00014739 2015-01-05 0       0      40    50    17 No    
##  6 USW00014739 2015-01-06 0.02    0.2    17    18    15 No    
##  7 USW00014739 2015-01-07 0       0      19    26     4 No    
##  8 USW00014739 2015-01-08 0       0       8    19    -1 No    
##  9 USW00014739 2015-01-09 0.01    0.2    23    30    19 No    
## 10 USW00014739 2015-01-10 0       0      22    24    17 No    
## # ... with 1,950 more rows
…
